%!PS-Adobe-3.0 EPSF-3.0
%%DocumentNeededResources: font Helvetica
%%+ font Helvetica-Bold
%%+ font Helvetica-Oblique
%%+ font Helvetica-BoldOblique
%%+ font Symbol
%%Title: R Graphics Output
%%Creator: R Software
%%Pages: (atend)
%%BoundingBox: 0 0 415 338
%%EndComments
%%BeginProlog
/bp  { gs sRGB gs } def
% begin .ps.prolog
/gs  { gsave } bind def
/gr  { grestore } bind def
/ep  { showpage gr gr } bind def
/m   { moveto } bind def
/l  { rlineto } bind def
/np  { newpath } bind def
/cp  { closepath } bind def
/f   { fill } bind def
/o   { stroke } bind def
/c   { newpath 0 360 arc } bind def
/r   { 4 2 roll moveto 1 copy 3 -1 roll exch 0 exch rlineto 0 rlineto -1 mul 0 exch rlineto closepath } bind def
/p1  { stroke } bind def
/p2  { gsave bg fill grestore newpath } bind def
/p3  { gsave bg fill grestore stroke } bind def
/p6  { gsave bg eofill grestore newpath } bind def
/p7  { gsave bg eofill grestore stroke } bind def
/t   { 5 -2 roll moveto gsave rotate
       1 index stringwidth pop
       mul neg 0 rmoveto show grestore } bind def
/ta  { 4 -2 roll moveto gsave rotate show } bind def
/tb  { 2 -1 roll 0 rmoveto show } bind def
/cl  { grestore gsave newpath 3 index 3 index moveto 1 index
       4 -1 roll lineto  exch 1 index lineto lineto
       closepath clip newpath } bind def
/rgb { setrgbcolor } bind def
/s   { scalefont setfont } bind def
% end   .ps.prolog
/sRGB { [ /CIEBasedABC
          << /DecodeLMN
               [ { dup 0.03928 le
                        {12.92321 div}
                        {0.055 add 1.055 div 2.4 exp }
                     ifelse
                 } bind dup dup
               ]
             /MatrixLMN [0.412457 0.212673 0.019334
                         0.357576 0.715152 0.119192
                         0.180437 0.072175 0.950301]
             /WhitePoint [0.9505 1.0 1.0890]
           >>
         ] setcolorspace } bind def
/srgb { setcolor } bind def
%%IncludeResource: font Helvetica
/Helvetica findfont
dup length dict begin
  {1 index /FID ne {def} {pop pop} ifelse} forall
  /Encoding ISOLatin1Encoding def
  currentdict
  end
/Font1 exch definefont pop
%%IncludeResource: font Helvetica-Bold
/Helvetica-Bold findfont
dup length dict begin
  {1 index /FID ne {def} {pop pop} ifelse} forall
  /Encoding ISOLatin1Encoding def
  currentdict
  end
/Font2 exch definefont pop
%%IncludeResource: font Helvetica-Oblique
/Helvetica-Oblique findfont
dup length dict begin
  {1 index /FID ne {def} {pop pop} ifelse} forall
  /Encoding ISOLatin1Encoding def
  currentdict
  end
/Font3 exch definefont pop
%%IncludeResource: font Helvetica-BoldOblique
/Helvetica-BoldOblique findfont
dup length dict begin
  {1 index /FID ne {def} {pop pop} ifelse} forall
  /Encoding ISOLatin1Encoding def
  currentdict
  end
/Font4 exch definefont pop
%%IncludeResource: font Symbol
/Symbol findfont
dup length dict begin
  {1 index /FID ne {def} {pop pop} ifelse} forall
  currentdict
  end
/Font5 exch definefont pop
%%EndProlog
%%Page: 1 1
bp
0.00 0.00 414.75 337.50 cl
0.00 0.00 414.75 337.50 cl
/bg { 1 1 1 srgb } def
1 1 1 srgb
1.06 setlinewidth
[] 0 setdash
1 setlinecap
1 setlinejoin
10.00 setmiterlimit
0.00 -0.00 414.75 337.50 r p3
0.00 0.00 414.75 337.50 cl
0.00 0.00 414.75 337.50 cl
0.00 0.00 414.75 337.50 cl
41.22 37.28 299.43 323.10 cl
/bg { 0.8980 0.8980 0.8980 srgb } def
41.22 37.28 258.21 285.82 r p2
0.9490 0.9490 0.9490 srgb
0.53 setlinewidth
[] 0 setdash
0 setlinecap
1 setlinejoin
10.00 setmiterlimit
np
41.22 88.76 m
258.21 0 l
o
np
41.22 163.64 m
258.21 0 l
o
np
41.22 238.52 m
258.21 0 l
o
np
41.22 313.40 m
258.21 0 l
o
np
49.83 37.28 m
0 285.82 l
o
np
105.77 37.28 m
0 285.82 l
o
np
161.71 37.28 m
0 285.82 l
o
np
217.65 37.28 m
0 285.82 l
o
np
273.60 37.28 m
0 285.82 l
o
1 1 1 srgb
1.06 setlinewidth
[] 0 setdash
np
41.22 51.32 m
258.21 0 l
o
np
41.22 126.20 m
258.21 0 l
o
np
41.22 201.08 m
258.21 0 l
o
np
41.22 275.96 m
258.21 0 l
o
np
77.80 37.28 m
0 285.82 l
o
np
133.74 37.28 m
0 285.82 l
o
np
189.68 37.28 m
0 285.82 l
o
np
245.63 37.28 m
0 285.82 l
o
/Font1 findfont 14 s
0.9725 0.4627 0.4275 srgb
117.41 134.21 (announce) .5 0 t
0.9098 0.5216 0.1490 srgb
150.30 234.69 (conjecture) .5 0 t
0.8275 0.5725 0 srgb
76.68 99.16 (emailme) .5 0 t
0.7176 0.6235 0 srgb
68.75 305.08 (estab) 0 ta
-0.280 (lish) tb gr
0.5765 0.6667 0 srgb
287.70 257.61 (estimate) .5 0 t
0.3686 0.7020 0 srgb
60.08 90.03 (f) 0 ta
-0.420 (axme) tb gr
0 0.7294 0.2196 srgb
205.12 299.84 (guess) .5 0 t
0 0.7490 0.4549 srgb
103.31 243.68 (indicate) .5 0 t
0 0.7569 0.6235 srgb
76.38 160.41 (inf) 0 ta
-0.420 (or) tb
0.350 (mme) tb gr
0 0.7490 0.7686 srgb
122.10 298.64 (predict) .5 0 t
0 0.7255 0.8902 srgb
52.96 103.95 (read) .5 0 t
0 0.6784 0.9804 srgb
78.02 95.27 (record) .5 0 t
0.3804 0.6118 1 srgb
98.54 129.56 (rela) 0 ta
-0.420 (ytome) tb gr
0.6824 0.5294 1 srgb
102.25 157.27 (repor) 0 ta
0.560 (t) tb gr
0.8588 0.4471 0.9843 srgb
83.62 189.62 (signaltome) .5 0 t
0.9608 0.3922 0.8902 srgb
90.55 215.83 (teachme) .5 0 t
1 0.3804 0.7647 srgb
91.67 129.86 (tellme) .5 0 t
1 0.4118 0.6118 srgb
60.84 45.25 (wr) 0 ta
0.210 (itedo) tb
-0.210 (wn) tb gr
0.00 0.00 414.75 337.50 cl
0.00 0.00 414.75 337.50 cl
0.00 0.00 414.75 337.50 cl
/Font1 findfont 10 s
0.4980 0.4980 0.4980 srgb
34.14 47.73 (40) 1 0 t
34.14 122.61 (50) 1 0 t
34.14 197.49 (60) 1 0 t
34.14 272.37 (70) 1 0 t
0.00 0.00 414.75 337.50 cl
0.00 0.00 414.75 337.50 cl
0.4980 0.4980 0.4980 srgb
1.06 setlinewidth
[] 0 setdash
0 setlinecap
1 setlinejoin
10.00 setmiterlimit
np
36.97 51.32 m
4.25 0 l
o
np
36.97 126.20 m
4.25 0 l
o
np
36.97 201.08 m
4.25 0 l
o
np
36.97 275.96 m
4.25 0 l
o
0.00 0.00 414.75 337.50 cl
0.00 0.00 414.75 337.50 cl
0.00 0.00 414.75 337.50 cl
0.00 0.00 414.75 337.50 cl
0.00 0.00 414.75 337.50 cl
0.00 0.00 414.75 337.50 cl
0.4980 0.4980 0.4980 srgb
1.06 setlinewidth
[] 0 setdash
0 setlinecap
1 setlinejoin
10.00 setmiterlimit
np
77.80 33.03 m
0 4.25 l
o
np
133.74 33.03 m
0 4.25 l
o
np
189.68 33.03 m
0 4.25 l
o
np
245.63 33.03 m
0 4.25 l
o
0.00 0.00 414.75 337.50 cl
0.00 0.00 414.75 337.50 cl
/Font1 findfont 10 s
0.4980 0.4980 0.4980 srgb
77.80 23.02 (10) .5 0 t
133.74 23.02 (15) .5 0 t
189.68 23.02 (20) .5 0 t
245.63 23.02 (25) .5 0 t
0.00 0.00 414.75 337.50 cl
0.00 0.00 414.75 337.50 cl
0.00 0.00 414.75 337.50 cl
0.00 0.00 414.75 337.50 cl
0.00 0.00 414.75 337.50 cl
/Font1 findfont 12 s
0 0 0 srgb
143.98 10.80 (NegV) 0 ta
-0.840 (alue) tb gr
0.00 0.00 414.75 337.50 cl
0.00 0.00 414.75 337.50 cl
/Font1 findfont 12 s
0 0 0 srgb
19.42 160.18 (QV) 90 ta
-0.840 (alue) tb gr
0.00 0.00 414.75 337.50 cl
0.00 0.00 414.75 337.50 cl
0.00 0.00 414.75 337.50 cl
0.00 0.00 414.75 337.50 cl
0.00 0.00 414.75 337.50 cl
0.00 0.00 414.75 337.50 cl
/bg { 1 1 1 srgb } def
309.47 -37.74 80.85 435.86 r p2
0.00 0.00 414.75 337.50 cl
0.00 0.00 414.75 337.50 cl
0.00 0.00 414.75 337.50 cl
0.00 0.00 414.75 337.50 cl
0.00 0.00 414.75 337.50 cl
0.00 0.00 414.75 337.50 cl
0.00 0.00 414.75 337.50 cl
0.00 0.00 414.75 337.50 cl
/bg { 0.9490 0.9490 0.9490 srgb } def
1 1 1 srgb
1.06 setlinewidth
[] 0 setdash
1 setlinecap
1 setlinejoin
10.00 setmiterlimit
313.72 335.16 23.04 23.04 r p3
0.00 0.00 414.75 337.50 cl
0.00 0.00 414.75 337.50 cl
0.00 0.00 414.75 337.50 cl
0.00 0.00 414.75 337.50 cl
/bg { 0.9490 0.9490 0.9490 srgb } def
1 1 1 srgb
1.06 setlinewidth
[] 0 setdash
1 setlinecap
1 setlinejoin
10.00 setmiterlimit
313.72 312.12 23.04 23.04 r p3
0.00 0.00 414.75 337.50 cl
0.00 0.00 414.75 337.50 cl
/Font1 findfont 14 s
0.8275 0.5725 0 srgb
325.24 318.61 (a) .5 0 t
0.00 0.00 414.75 337.50 cl
0.00 0.00 414.75 337.50 cl
/bg { 0.9490 0.9490 0.9490 srgb } def
1 1 1 srgb
1.06 setlinewidth
[] 0 setdash
1 setlinecap
1 setlinejoin
10.00 setmiterlimit
313.72 289.08 23.04 23.04 r p3
0.00 0.00 414.75 337.50 cl
0.00 0.00 414.75 337.50 cl
/Font1 findfont 14 s
0.7176 0.6235 0 srgb
325.24 295.57 (a) .5 0 t
0.00 0.00 414.75 337.50 cl
0.00 0.00 414.75 337.50 cl
/bg { 0.9490 0.9490 0.9490 srgb } def
1 1 1 srgb
1.06 setlinewidth
[] 0 setdash
1 setlinecap
1 setlinejoin
10.00 setmiterlimit
313.72 266.04 23.04 23.04 r p3
0.00 0.00 414.75 337.50 cl
0.00 0.00 414.75 337.50 cl
/Font1 findfont 14 s
0.5765 0.6667 0 srgb
325.24 272.53 (a) .5 0 t
0.00 0.00 414.75 337.50 cl
0.00 0.00 414.75 337.50 cl
/bg { 0.9490 0.9490 0.9490 srgb } def
1 1 1 srgb
1.06 setlinewidth
[] 0 setdash
1 setlinecap
1 setlinejoin
10.00 setmiterlimit
313.72 243.00 23.04 23.04 r p3
0.00 0.00 414.75 337.50 cl
0.00 0.00 414.75 337.50 cl
/Font1 findfont 14 s
0.3686 0.7020 0 srgb
325.24 249.49 (a) .5 0 t
0.00 0.00 414.75 337.50 cl
0.00 0.00 414.75 337.50 cl
/bg { 0.9490 0.9490 0.9490 srgb } def
1 1 1 srgb
1.06 setlinewidth
[] 0 setdash
1 setlinecap
1 setlinejoin
10.00 setmiterlimit
313.72 219.96 23.04 23.04 r p3
0.00 0.00 414.75 337.50 cl
0.00 0.00 414.75 337.50 cl
/Font1 findfont 14 s
0 0.7294 0.2196 srgb
325.24 226.45 (a) .5 0 t
0.00 0.00 414.75 337.50 cl
0.00 0.00 414.75 337.50 cl
/bg { 0.9490 0.9490 0.9490 srgb } def
1 1 1 srgb
1.06 setlinewidth
[] 0 setdash
1 setlinecap
1 setlinejoin
10.00 setmiterlimit
313.72 196.92 23.04 23.04 r p3
0.00 0.00 414.75 337.50 cl
0.00 0.00 414.75 337.50 cl
/Font1 findfont 14 s
0 0.7490 0.4549 srgb
325.24 203.41 (a) .5 0 t
0.00 0.00 414.75 337.50 cl
0.00 0.00 414.75 337.50 cl
/bg { 0.9490 0.9490 0.9490 srgb } def
1 1 1 srgb
1.06 setlinewidth
[] 0 setdash
1 setlinecap
1 setlinejoin
10.00 setmiterlimit
313.72 173.88 23.04 23.04 r p3
0.00 0.00 414.75 337.50 cl
0.00 0.00 414.75 337.50 cl
/Font1 findfont 14 s
0 0.7569 0.6235 srgb
325.24 180.37 (a) .5 0 t
0.00 0.00 414.75 337.50 cl
0.00 0.00 414.75 337.50 cl
/bg { 0.9490 0.9490 0.9490 srgb } def
1 1 1 srgb
1.06 setlinewidth
[] 0 setdash
1 setlinecap
1 setlinejoin
10.00 setmiterlimit
313.72 150.84 23.04 23.04 r p3
0.00 0.00 414.75 337.50 cl
0.00 0.00 414.75 337.50 cl
/Font1 findfont 14 s
0 0.7490 0.7686 srgb
325.24 157.33 (a) .5 0 t
0.00 0.00 414.75 337.50 cl
0.00 0.00 414.75 337.50 cl
/bg { 0.9490 0.9490 0.9490 srgb } def
1 1 1 srgb
1.06 setlinewidth
[] 0 setdash
1 setlinecap
1 setlinejoin
10.00 setmiterlimit
313.72 127.80 23.04 23.04 r p3
0.00 0.00 414.75 337.50 cl
0.00 0.00 414.75 337.50 cl
/Font1 findfont 14 s
0 0.7255 0.8902 srgb
325.24 134.29 (a) .5 0 t
0.00 0.00 414.75 337.50 cl
0.00 0.00 414.75 337.50 cl
/bg { 0.9490 0.9490 0.9490 srgb } def
1 1 1 srgb
1.06 setlinewidth
[] 0 setdash
1 setlinecap
1 setlinejoin
10.00 setmiterlimit
313.72 104.76 23.04 23.04 r p3
0.00 0.00 414.75 337.50 cl
0.00 0.00 414.75 337.50 cl
/Font1 findfont 14 s
0 0.6784 0.9804 srgb
325.24 111.25 (a) .5 0 t
0.00 0.00 414.75 337.50 cl
0.00 0.00 414.75 337.50 cl
/bg { 0.9490 0.9490 0.9490 srgb } def
1 1 1 srgb
1.06 setlinewidth
[] 0 setdash
1 setlinecap
1 setlinejoin
10.00 setmiterlimit
313.72 81.72 23.04 23.04 r p3
0.00 0.00 414.75 337.50 cl
0.00 0.00 414.75 337.50 cl
/Font1 findfont 14 s
0.3804 0.6118 1 srgb
325.24 88.21 (a) .5 0 t
0.00 0.00 414.75 337.50 cl
0.00 0.00 414.75 337.50 cl
/bg { 0.9490 0.9490 0.9490 srgb } def
1 1 1 srgb
1.06 setlinewidth
[] 0 setdash
1 setlinecap
1 setlinejoin
10.00 setmiterlimit
313.72 58.68 23.04 23.04 r p3
0.00 0.00 414.75 337.50 cl
0.00 0.00 414.75 337.50 cl
/Font1 findfont 14 s
0.6824 0.5294 1 srgb
325.24 65.17 (a) .5 0 t
0.00 0.00 414.75 337.50 cl
0.00 0.00 414.75 337.50 cl
/bg { 0.9490 0.9490 0.9490 srgb } def
1 1 1 srgb
1.06 setlinewidth
[] 0 setdash
1 setlinecap
1 setlinejoin
10.00 setmiterlimit
313.72 35.64 23.04 23.04 r p3
0.00 0.00 414.75 337.50 cl
0.00 0.00 414.75 337.50 cl
/Font1 findfont 14 s
0.8588 0.4471 0.9843 srgb
325.24 42.13 (a) .5 0 t
0.00 0.00 414.75 337.50 cl
0.00 0.00 414.75 337.50 cl
/bg { 0.9490 0.9490 0.9490 srgb } def
1 1 1 srgb
1.06 setlinewidth
[] 0 setdash
1 setlinecap
1 setlinejoin
10.00 setmiterlimit
313.72 12.60 23.04 23.04 r p3
0.00 0.00 414.75 337.50 cl
0.00 0.00 414.75 337.50 cl
/Font1 findfont 14 s
0.9608 0.3922 0.8902 srgb
325.24 19.09 (a) .5 0 t
0.00 0.00 414.75 337.50 cl
0.00 0.00 414.75 337.50 cl
/bg { 0.9490 0.9490 0.9490 srgb } def
1 1 1 srgb
1.06 setlinewidth
[] 0 setdash
1 setlinecap
1 setlinejoin
10.00 setmiterlimit
313.72 -10.44 23.04 23.04 r p3
0.00 0.00 414.75 337.50 cl
0.00 0.00 414.75 337.50 cl
/Font1 findfont 14 s
1 0.3804 0.7647 srgb
325.24 -3.95 (a) .5 0 t
0.00 0.00 414.75 337.50 cl
0.00 0.00 414.75 337.50 cl
0.00 0.00 414.75 337.50 cl
0.00 0.00 414.75 337.50 cl
0.00 0.00 414.75 337.50 cl
0.00 0.00 414.75 337.50 cl
0.00 0.00 414.75 337.50 cl
0.00 0.00 414.75 337.50 cl
0.00 0.00 414.75 337.50 cl
0.00 0.00 414.75 337.50 cl
/Font1 findfont 10 s
0 0 0 srgb
339.64 320.05 (emailme) 0 0 t
0.00 0.00 414.75 337.50 cl
0.00 0.00 414.75 337.50 cl
/Font1 findfont 10 s
0 0 0 srgb
339.64 297.01 (estab) 0 ta
-0.200 (lish) tb gr
0.00 0.00 414.75 337.50 cl
0.00 0.00 414.75 337.50 cl
/Font1 findfont 10 s
0 0 0 srgb
339.64 273.97 (estimate) 0 0 t
0.00 0.00 414.75 337.50 cl
0.00 0.00 414.75 337.50 cl
/Font1 findfont 10 s
0 0 0 srgb
339.64 250.93 (f) 0 ta
-0.300 (axme) tb gr
0.00 0.00 414.75 337.50 cl
0.00 0.00 414.75 337.50 cl
/Font1 findfont 10 s
0 0 0 srgb
339.64 227.89 (guess) 0 0 t
0.00 0.00 414.75 337.50 cl
0.00 0.00 414.75 337.50 cl
/Font1 findfont 10 s
0 0 0 srgb
339.64 204.85 (indicate) 0 0 t
0.00 0.00 414.75 337.50 cl
0.00 0.00 414.75 337.50 cl
/Font1 findfont 10 s
0 0 0 srgb
339.64 181.81 (inf) 0 ta
-0.300 (or) tb
0.250 (mme) tb gr
0.00 0.00 414.75 337.50 cl
0.00 0.00 414.75 337.50 cl
/Font1 findfont 10 s
0 0 0 srgb
339.64 158.77 (predict) 0 0 t
0.00 0.00 414.75 337.50 cl
0.00 0.00 414.75 337.50 cl
/Font1 findfont 10 s
0 0 0 srgb
339.64 135.73 (read) 0 0 t
0.00 0.00 414.75 337.50 cl
0.00 0.00 414.75 337.50 cl
/Font1 findfont 10 s
0 0 0 srgb
339.64 112.69 (record) 0 0 t
0.00 0.00 414.75 337.50 cl
0.00 0.00 414.75 337.50 cl
/Font1 findfont 10 s
0 0 0 srgb
339.64 89.65 (rela) 0 ta
-0.300 (ytome) tb gr
0.00 0.00 414.75 337.50 cl
0.00 0.00 414.75 337.50 cl
/Font1 findfont 10 s
0 0 0 srgb
339.64 66.61 (repor) 0 ta
0.400 (t) tb gr
0.00 0.00 414.75 337.50 cl
0.00 0.00 414.75 337.50 cl
/Font1 findfont 10 s
0 0 0 srgb
339.64 43.57 (signaltome) 0 0 t
0.00 0.00 414.75 337.50 cl
0.00 0.00 414.75 337.50 cl
/Font1 findfont 10 s
0 0 0 srgb
339.64 20.53 (teachme) 0 0 t
0.00 0.00 414.75 337.50 cl
0.00 0.00 414.75 337.50 cl
/Font1 findfont 10 s
0 0 0 srgb
339.64 -2.51 (tellme) 0 0 t
0.00 0.00 414.75 337.50 cl
0.00 0.00 414.75 337.50 cl
0.00 0.00 414.75 337.50 cl
0.00 0.00 414.75 337.50 cl
0.00 0.00 414.75 337.50 cl
0.00 0.00 414.75 337.50 cl
0.00 0.00 414.75 337.50 cl
0.00 0.00 414.75 337.50 cl
0.00 0.00 414.75 337.50 cl
0.00 0.00 414.75 337.50 cl
0.00 0.00 414.75 337.50 cl
0.00 0.00 414.75 337.50 cl
0.00 0.00 414.75 337.50 cl
0.00 0.00 414.75 337.50 cl
ep
%%Trailer
%%Pages: 1
%%EOF
